"Mobile No","First Name","Custom 1","Length"
"0452585411","Saam","Saam, update your contact details before 10 July for your chance to WIN 1 of 5 2019 team signed guernseys! dtcl.nz/WPZ4we Opt out STOP 0429558076","145"
"0434000776","Isabella","Isabella, update your contact details before 10 July for your chance to WIN 1 of 5 2019 team signed guernseys! dtcl.nz/Ddb54L Opt out STOP 0429558076","149"
"0456866565","Eliza ","Eliza, update your contact details before 10 July for your chance to WIN 1 of 5 2019 team signed guernseys! dtcl.nz/WNArwL Opt out STOP 0429558076","146"
"0408690112","Brooke ","Brooke, update your contact details before 10 July for your chance to WIN 1 of 5 2019 team signed guernseys! dtcl.nz/DZJ0K2 Opt out STOP 0429558076","147"
"0412889888","Ciana","Ciana, update your contact details before 10 July for your chance to WIN 1 of 5 2019 team signed guernseys! dtcl.nz/D1nwPK Opt out STOP 0429558076","146"
"0429463072","Isabelle","Isabelle, update your contact details before 10 July for your chance to WIN 1 of 5 2019 team signed guernseys! dtcl.nz/WkpQe5 Opt out STOP 0429558076","149"
"0432669872","Charlie","Charlie, update your contact details before 10 July for your chance to WIN 1 of 5 2019 team signed guernseys! dtcl.nz/79P3xe Opt out STOP 0429558076","148"
"0047070719","Charlie","Charlie, update your contact details before 10 July for your chance to WIN 1 of 5 2019 team signed guernseys! dtcl.nz/zwL4kY Opt out STOP 0429558076","148"
"0418822077","Deanne","Deanne, update your contact details before 10 July for your chance to WIN 1 of 5 2019 team signed guernseys! dtcl.nz/DMEGwx Opt out STOP 0429558076","147"
"0400157905","Jaiden","Jaiden, update your contact details before 10 July for your chance to WIN 1 of 5 2019 team signed guernseys! dtcl.nz/D0X94l Opt out STOP 0429558076","147"
"0431989932","Ruby","Ruby, update your contact details before 10 July for your chance to WIN 1 of 5 2019 team signed guernseys! dtcl.nz/7yedjn Opt out STOP 0429558076","145"
"0438908355","Alex ","Alex, update your contact details before 10 July for your chance to WIN 1 of 5 2019 team signed guernseys! dtcl.nz/DBxba3 Opt out STOP 0429558076","145"
"0421375560","Liasha","Liasha, update your contact details before 10 July for your chance to WIN 1 of 5 2019 team signed guernseys! dtcl.nz/DEMJaq Opt out STOP 0429558076","147"
"0447731345","Sophie","Sophie, update your contact details before 10 July for your chance to WIN 1 of 5 2019 team signed guernseys! dtcl.nz/zYrMKo Opt out STOP 0429558076","147"
"0402689089","Chanelle ","Chanelle, update your contact details before 10 July for your chance to WIN 1 of 5 2019 team signed guernseys! dtcl.nz/zlKJqV Opt out STOP 0429558076","149"
"0434496435","Rory","Rory, update your contact details before 10 July for your chance to WIN 1 of 5 2019 team signed guernseys! dtcl.nz/z3xqNB Opt out STOP 0429558076","145"
"0433961112","Aarav","Aarav, update your contact details before 10 July for your chance to WIN 1 of 5 2019 team signed guernseys! dtcl.nz/z6rEkE Opt out STOP 0429558076","146"
"0456431523","Molly ","Molly, update your contact details before 10 July for your chance to WIN 1 of 5 2019 team signed guernseys! dtcl.nz/zaP6GN Opt out STOP 0429558076","146"
"0402520021","Jane","Jane, update your contact details before 10 July for your chance to WIN 1 of 5 2019 team signed guernseys! dtcl.nz/WVvkK9 Opt out STOP 0429558076","145"
"0402919825","Lacey","Lacey, update your contact details before 10 July for your chance to WIN 1 of 5 2019 team signed guernseys! dtcl.nz/W5ZB1R Opt out STOP 0429558076","146"
"0403484511","Rocco","Rocco, update your contact details before 10 July for your chance to WIN 1 of 5 2019 team signed guernseys! dtcl.nz/WppxgN Opt out STOP 0429558076","146"
"0405977553","Owen","Owen, update your contact details before 10 July for your chance to WIN 1 of 5 2019 team signed guernseys! dtcl.nz/WKOvq5 Opt out STOP 0429558076","145"
"0406548656","Jo","Jo, update your contact details before 10 July for your chance to WIN 1 of 5 2019 team signed guernseys! dtcl.nz/zXqwVG Opt out STOP 0429558076","143"
"0407712020","Blake ","Blake, update your contact details before 10 July for your chance to WIN 1 of 5 2019 team signed guernseys! dtcl.nz/WmjOyp Opt out STOP 0429558076","146"
"0419822458","Hugh","Hugh, update your contact details before 10 July for your chance to WIN 1 of 5 2019 team signed guernseys! dtcl.nz/zb8qK8 Opt out STOP 0429558076","145"
"0430829005","Georgie","Georgie, update your contact details before 10 July for your chance to WIN 1 of 5 2019 team signed guernseys! dtcl.nz/7nN2JV Opt out STOP 0429558076","148"
"0439867263","Jamie","Jamie, update your contact details before 10 July for your chance to WIN 1 of 5 2019 team signed guernseys! dtcl.nz/7Q1PjE Opt out STOP 0429558076","146"
"0414854421","Emily","Emily, update your contact details before 10 July for your chance to WIN 1 of 5 2019 team signed guernseys! dtcl.nz/DJQej1 Opt out STOP 0429558076","146"
"0409769657","Thea","Thea, update your contact details before 10 July for your chance to WIN 1 of 5 2019 team signed guernseys! dtcl.nz/7OMglG Opt out STOP 0429558076","145"
"0413935318","Hope","Hope, update your contact details before 10 July for your chance to WIN 1 of 5 2019 team signed guernseys! dtcl.nz/72qMbA Opt out STOP 0429558076","145"
"0418816102","Kyle","Kyle, update your contact details before 10 July for your chance to WIN 1 of 5 2019 team signed guernseys! dtcl.nz/WjpnX5 Opt out STOP 0429558076","145"
"0418889084","Joseph","Joseph, update your contact details before 10 July for your chance to WIN 1 of 5 2019 team signed guernseys! dtcl.nz/7x0PEv Opt out STOP 0429558076","147"
"0422390937","Jett","Jett, update your contact details before 10 July for your chance to WIN 1 of 5 2019 team signed guernseys! dtcl.nz/7objEq Opt out STOP 0429558076","145"
"0434986464","Ben","Ben, update your contact details before 10 July for your chance to WIN 1 of 5 2019 team signed guernseys! dtcl.nz/D8jlRO Opt out STOP 0429558076","144"
"0404441621","Harry","Harry, update your contact details before 10 July for your chance to WIN 1 of 5 2019 team signed guernseys! dtcl.nz/zL8RpB Opt out STOP 0429558076","146"
"0412216580","Johnathon","Johnathon, update your contact details before 10 July for your chance to WIN 1 of 5 2019 team signed guernseys! dtcl.nz/WAYm11 Opt out STOP 0429558076","150"
"0451660235","Ben","Ben, update your contact details before 10 July for your chance to WIN 1 of 5 2019 team signed guernseys! dtcl.nz/DqbeEJ Opt out STOP 0429558076","144"
"0413885543","Alex","Alex, update your contact details before 10 July for your chance to WIN 1 of 5 2019 team signed guernseys! dtcl.nz/ze1pyA Opt out STOP 0429558076","145"
"0401423249","Joseph","Joseph, update your contact details before 10 July for your chance to WIN 1 of 5 2019 team signed guernseys! dtcl.nz/Wvjg85 Opt out STOP 0429558076","147"
"0434623251","Melody","Melody, update your contact details before 10 July for your chance to WIN 1 of 5 2019 team signed guernseys! dtcl.nz/DRXdMg Opt out STOP 0429558076","147"
"0419826033","Sharon","Sharon, update your contact details before 10 July for your chance to WIN 1 of 5 2019 team signed guernseys! dtcl.nz/7Gd2lK Opt out STOP 0429558076","147"
"0412306763","Emily","Emily, update your contact details before 10 July for your chance to WIN 1 of 5 2019 team signed guernseys! dtcl.nz/7rpvOX Opt out STOP 0429558076","146"
"0438110852","mick","mick, update your contact details before 10 July for your chance to WIN 1 of 5 2019 team signed guernseys! dtcl.nz/DgqX2Q Opt out STOP 0429558076","145"
"0408805336","Ian","Ian, update your contact details before 10 July for your chance to WIN 1 of 5 2019 team signed guernseys! dtcl.nz/74Jybm Opt out STOP 0429558076","144"
"0408808879","Alana","Alana, update your contact details before 10 July for your chance to WIN 1 of 5 2019 team signed guernseys! dtcl.nz/WPZ48e Opt out STOP 0429558076","146"
"0401999481","Rosalie","Rosalie, update your contact details before 10 July for your chance to WIN 1 of 5 2019 team signed guernseys! dtcl.nz/Ddb5JL Opt out STOP 0429558076","148"
"0408176382","Hayden","Hayden, update your contact details before 10 July for your chance to WIN 1 of 5 2019 team signed guernseys! dtcl.nz/WNAraL Opt out STOP 0429558076","147"
"0418896773","Harrison","Harrison, update your contact details before 10 July for your chance to WIN 1 of 5 2019 team signed guernseys! dtcl.nz/DZJ0M2 Opt out STOP 0429558076","149"
"0403500093","Oliver","Oliver, update your contact details before 10 July for your chance to WIN 1 of 5 2019 team signed guernseys! dtcl.nz/D1nwbK Opt out STOP 0429558076","147"
"0438891822","Louise","Louise, update your contact details before 10 July for your chance to WIN 1 of 5 2019 team signed guernseys! dtcl.nz/ze1pyY Opt out STOP 0429558076","147"
"0408648359","Lachlan","Lachlan, update your contact details before 10 July for your chance to WIN 1 of 5 2019 team signed guernseys! dtcl.nz/Wvjg8G Opt out STOP 0429558076","148"
"0403509145","Ryan","Ryan, update your contact details before 10 July for your chance to WIN 1 of 5 2019 team signed guernseys! dtcl.nz/DRXdM9 Opt out STOP 0429558076","145"
"0438784470","Aiden","Aiden, update your contact details before 10 July for your chance to WIN 1 of 5 2019 team signed guernseys! dtcl.nz/7Gd2lx Opt out STOP 0429558076","146"
"0488444842","Kane","Kane, update your contact details before 10 July for your chance to WIN 1 of 5 2019 team signed guernseys! dtcl.nz/7rpvO6 Opt out STOP 0429558076","145"
"0401000569","Peter J","Peter, update your contact details before 10 July for your chance to WIN 1 of 5 2019 team signed guernseys! dtcl.nz/DgqX2w Opt out STOP 0429558076","146"
"0435066794","James","James, update your contact details before 10 July for your chance to WIN 1 of 5 2019 team signed guernseys! dtcl.nz/74Jybd Opt out STOP 0429558076","146"
"0458558371","Jed","Jed, update your contact details before 10 July for your chance to WIN 1 of 5 2019 team signed guernseys! dtcl.nz/WPZ48Y Opt out STOP 0429558076","144"
"0422237242","Ryan","Ryan, update your contact details before 10 July for your chance to WIN 1 of 5 2019 team signed guernseys! dtcl.nz/Ddb5Jo Opt out STOP 0429558076","145"
"0410174069","Jack","Jack, update your contact details before 10 July for your chance to WIN 1 of 5 2019 team signed guernseys! dtcl.nz/WNAran Opt out STOP 0429558076","145"
"0408848827","Mitchell","Mitchell, update your contact details before 10 July for your chance to WIN 1 of 5 2019 team signed guernseys! dtcl.nz/DZJ0ME Opt out STOP 0429558076","149"
"0428391940","Kyle","Kyle, update your contact details before 10 July for your chance to WIN 1 of 5 2019 team signed guernseys! dtcl.nz/D1nwbw Opt out STOP 0429558076","145"
"0438595714","Rile","Rile, update your contact details before 10 July for your chance to WIN 1 of 5 2019 team signed guernseys! dtcl.nz/WkpQyE Opt out STOP 0429558076","145"
"0456363177","Jamie","Jamie, update your contact details before 10 July for your chance to WIN 1 of 5 2019 team signed guernseys! dtcl.nz/79P3GV Opt out STOP 0429558076","146"
"0402737779","Tyler","Tyler, update your contact details before 10 July for your chance to WIN 1 of 5 2019 team signed guernseys! dtcl.nz/zwL4A5 Opt out STOP 0429558076","146"
"0428391940","Joel","Joel, update your contact details before 10 July for your chance to WIN 1 of 5 2019 team signed guernseys! dtcl.nz/DMEGJV Opt out STOP 0429558076","145"
"0477185125","Allan","Allan, update your contact details before 10 July for your chance to WIN 1 of 5 2019 team signed guernseys! dtcl.nz/D0X91k Opt out STOP 0429558076","146"
"0428422300","Issy","Issy, update your contact details before 10 July for your chance to WIN 1 of 5 2019 team signed guernseys! dtcl.nz/7yedJw Opt out STOP 0429558076","145"
"0466533588","Sophie","Sophie, update your contact details before 10 July for your chance to WIN 1 of 5 2019 team signed guernseys! dtcl.nz/DBxbml Opt out STOP 0429558076","147"
"0429200023","Riley ","Riley, update your contact details before 10 July for your chance to WIN 1 of 5 2019 team signed guernseys! dtcl.nz/DEMJRM Opt out STOP 0429558076","146"
"0405347261","Cooper","Cooper, update your contact details before 10 July for your chance to WIN 1 of 5 2019 team signed guernseys! dtcl.nz/zYrMPg Opt out STOP 0429558076","147"
"0438908355","Isabella","Isabella, update your contact details before 10 July for your chance to WIN 1 of 5 2019 team signed guernseys! dtcl.nz/zlKJ1e Opt out STOP 0429558076","149"
"0414505583","Joanne","Joanne, update your contact details before 10 July for your chance to WIN 1 of 5 2019 team signed guernseys! dtcl.nz/z3xqwl Opt out STOP 0429558076","147"
"0408814951","Elijah","Elijah, update your contact details before 10 July for your chance to WIN 1 of 5 2019 team signed guernseys! dtcl.nz/z6rEnV Opt out STOP 0429558076","147"
"0403133030","Darcy","Darcy, update your contact details before 10 July for your chance to WIN 1 of 5 2019 team signed guernseys! dtcl.nz/zaP6e9 Opt out STOP 0429558076","146"
"0401711528","Davis","Davis, update your contact details before 10 July for your chance to WIN 1 of 5 2019 team signed guernseys! dtcl.nz/WVvkr1 Opt out STOP 0429558076","146"
"0407976422","Woody","Woody, update your contact details before 10 July for your chance to WIN 1 of 5 2019 team signed guernseys! dtcl.nz/W5ZBpa Opt out STOP 0429558076","146"
"0420584189","Cooper","Cooper, update your contact details before 10 July for your chance to WIN 1 of 5 2019 team signed guernseys! dtcl.nz/WppxJd Opt out STOP 0429558076","147"
"0401496685","Liam ","Liam, update your contact details before 10 July for your chance to WIN 1 of 5 2019 team signed guernseys! dtcl.nz/WKOvdA Opt out STOP 0429558076","145"
"0402297955","Amber ","Amber, update your contact details before 10 July for your chance to WIN 1 of 5 2019 team signed guernseys! dtcl.nz/zXqw4O Opt out STOP 0429558076","146"
"0428846071","Ava","Ava, update your contact details before 10 July for your chance to WIN 1 of 5 2019 team signed guernseys! dtcl.nz/zb8qvv Opt out STOP 0429558076","144"
"0478152092","Summer","Summer, update your contact details before 10 July for your chance to WIN 1 of 5 2019 team signed guernseys! dtcl.nz/7nN29Y Opt out STOP 0429558076","147"
"0429029078","Corey","Corey, update your contact details before 10 July for your chance to WIN 1 of 5 2019 team signed guernseys! dtcl.nz/7Q1PwX Opt out STOP 0429558076","146"
"0406624443","Joe","Joe, update your contact details before 10 July for your chance to WIN 1 of 5 2019 team signed guernseys! dtcl.nz/DJQePn Opt out STOP 0429558076","144"
"0421096979","Abigail","Abigail, update your contact details before 10 July for your chance to WIN 1 of 5 2019 team signed guernseys! dtcl.nz/7OMgkP Opt out STOP 0429558076","148"
"0423809714","Fergus","Fergus, update your contact details before 10 July for your chance to WIN 1 of 5 2019 team signed guernseys! dtcl.nz/72qM9v Opt out STOP 0429558076","147"
"0459222552","Aurora","Aurora, update your contact details before 10 July for your chance to WIN 1 of 5 2019 team signed guernseys! dtcl.nz/WjpnNL Opt out STOP 0429558076","147"
"0402580556","Thalia","Thalia, update your contact details before 10 July for your chance to WIN 1 of 5 2019 team signed guernseys! dtcl.nz/7x0PJM Opt out STOP 0429558076","147"
"0411243601","Sam","Sam, update your contact details before 10 July for your chance to WIN 1 of 5 2019 team signed guernseys! dtcl.nz/7objwa Opt out STOP 0429558076","144"
"0433009781","Josh","Josh, update your contact details before 10 July for your chance to WIN 1 of 5 2019 team signed guernseys! dtcl.nz/D8jlpv Opt out STOP 0429558076","145"
"0414634937","Andrew","Andrew, update your contact details before 10 July for your chance to WIN 1 of 5 2019 team signed guernseys! dtcl.nz/zL8RNL Opt out STOP 0429558076","147"
"0413767077","Brianna","Brianna, update your contact details before 10 July for your chance to WIN 1 of 5 2019 team signed guernseys! dtcl.nz/WAYm28 Opt out STOP 0429558076","148"
"0434502336","Mahlia","Mahlia, update your contact details before 10 July for your chance to WIN 1 of 5 2019 team signed guernseys! dtcl.nz/DqbeJP Opt out STOP 0429558076","147"
"0407616231","Mark","Mark, update your contact details before 10 July for your chance to WIN 1 of 5 2019 team signed guernseys! dtcl.nz/ze1prY Opt out STOP 0429558076","145"
"0459222552","Aurora","Aurora, update your contact details before 10 July for your chance to WIN 1 of 5 2019 team signed guernseys! dtcl.nz/WvjgJG Opt out STOP 0429558076","147"
"0448497328","Thio","Thio, update your contact details before 10 July for your chance to WIN 1 of 5 2019 team signed guernseys! dtcl.nz/DRXde9 Opt out STOP 0429558076","145"
"0403732853","Emerson","Emerson, update your contact details before 10 July for your chance to WIN 1 of 5 2019 team signed guernseys! dtcl.nz/7Gd2rx Opt out STOP 0429558076","148"
"0410410796","Jamie","Jamie, update your contact details before 10 July for your chance to WIN 1 of 5 2019 team signed guernseys! dtcl.nz/7rpvJ6 Opt out STOP 0429558076","146"
"0412603291","Brent","Brent, update your contact details before 10 July for your chance to WIN 1 of 5 2019 team signed guernseys! dtcl.nz/DgqX4w Opt out STOP 0429558076","146"
"0414794695","Briella","Briella, update your contact details before 10 July for your chance to WIN 1 of 5 2019 team signed guernseys! dtcl.nz/74JyKd Opt out STOP 0429558076","148"
"0420736082","Nicholas","Nicholas, update your contact details before 10 July for your chance to WIN 1 of 5 2019 team signed guernseys! dtcl.nz/WPZ49Y Opt out STOP 0429558076","149"
"0424808522","Jack","Jack, update your contact details before 10 July for your chance to WIN 1 of 5 2019 team signed guernseys! dtcl.nz/Ddb5Go Opt out STOP 0429558076","145"
"0477719443","Melly","Melly, update your contact details before 10 July for your chance to WIN 1 of 5 2019 team signed guernseys! dtcl.nz/WNAr1n Opt out STOP 0429558076","146"
"0418924929","Charlie","Charlie, update your contact details before 10 July for your chance to WIN 1 of 5 2019 team signed guernseys! dtcl.nz/DZJ0qE Opt out STOP 0429558076","148"
"0431375950","Anne","Anne, update your contact details before 10 July for your chance to WIN 1 of 5 2019 team signed guernseys! dtcl.nz/D1nwqw Opt out STOP 0429558076","145"
"0407021749","James","James, update your contact details before 10 July for your chance to WIN 1 of 5 2019 team signed guernseys! dtcl.nz/WkpQZE Opt out STOP 0429558076","146"
"0428883845","Louis","Louis, update your contact details before 10 July for your chance to WIN 1 of 5 2019 team signed guernseys! dtcl.nz/79P3pV Opt out STOP 0429558076","146"
"0401304956","Willow","Willow, update your contact details before 10 July for your chance to WIN 1 of 5 2019 team signed guernseys! dtcl.nz/zwL4J5 Opt out STOP 0429558076","147"
"0438821950","Julie","Julie, update your contact details before 10 July for your chance to WIN 1 of 5 2019 team signed guernseys! dtcl.nz/DMEGZV Opt out STOP 0429558076","146"
"0414257900","Zack","Zack, update your contact details before 10 July for your chance to WIN 1 of 5 2019 team signed guernseys! dtcl.nz/D0X9ak Opt out STOP 0429558076","145"
"0403159015","Matthew","Matthew, update your contact details before 10 July for your chance to WIN 1 of 5 2019 team signed guernseys! dtcl.nz/7yedYw Opt out STOP 0429558076","148"
"0421694410","Nate","Nate, update your contact details before 10 July for your chance to WIN 1 of 5 2019 team signed guernseys! dtcl.nz/DBxbLl Opt out STOP 0429558076","145"
"0466287655","Sam","Sam, update your contact details before 10 July for your chance to WIN 1 of 5 2019 team signed guernseys! dtcl.nz/DEMJ3M Opt out STOP 0429558076","144"
"0417828953","Bertie","Bertie, update your contact details before 10 July for your chance to WIN 1 of 5 2019 team signed guernseys! dtcl.nz/zYrMbg Opt out STOP 0429558076","147"
"0433539217","Patrick","Patrick, update your contact details before 10 July for your chance to WIN 1 of 5 2019 team signed guernseys! dtcl.nz/zlKJAe Opt out STOP 0429558076","148"
"0406383922","Calvin","Calvin, update your contact details before 10 July for your chance to WIN 1 of 5 2019 team signed guernseys! dtcl.nz/z6rEyV Opt out STOP 0429558076","147"
"0419800284","Kobie","Kobie, update your contact details before 10 July for your chance to WIN 1 of 5 2019 team signed guernseys! dtcl.nz/zaP6A9 Opt out STOP 0429558076","146"
"0403892986","Dylan","Dylan, update your contact details before 10 July for your chance to WIN 1 of 5 2019 team signed guernseys! dtcl.nz/WVvkl1 Opt out STOP 0429558076","146"
"0433115345","Oscar","Oscar, update your contact details before 10 July for your chance to WIN 1 of 5 2019 team signed guernseys! dtcl.nz/WKOvKA Opt out STOP 0429558076","146"
"0413597417","Flynn","Flynn, update your contact details before 10 July for your chance to WIN 1 of 5 2019 team signed guernseys! dtcl.nz/zXqwBO Opt out STOP 0429558076","146"
"0421344436","Cooper","Cooper, update your contact details before 10 July for your chance to WIN 1 of 5 2019 team signed guernseys! dtcl.nz/WmjO8y Opt out STOP 0429558076","147"
"0423780393","Blake","Blake, update your contact details before 10 July for your chance to WIN 1 of 5 2019 team signed guernseys! dtcl.nz/zb8qAv Opt out STOP 0429558076","146"
"0402761938","Oliver","Oliver, update your contact details before 10 July for your chance to WIN 1 of 5 2019 team signed guernseys! dtcl.nz/7nN2YY Opt out STOP 0429558076","147"
"0410791034","Sophie","Sophie, update your contact details before 10 July for your chance to WIN 1 of 5 2019 team signed guernseys! dtcl.nz/7Q1PBX Opt out STOP 0429558076","147"
"0425559643","Dean","Dean, update your contact details before 10 July for your chance to WIN 1 of 5 2019 team signed guernseys! dtcl.nz/DJQepn Opt out STOP 0429558076","145"
"0438556737","Angus","Angus, update your contact details before 10 July for your chance to WIN 1 of 5 2019 team signed guernseys! dtcl.nz/7OMgjP Opt out STOP 0429558076","146"
"0403928873","Emily","Emily, update your contact details before 10 July for your chance to WIN 1 of 5 2019 team signed guernseys! dtcl.nz/WjpnAL Opt out STOP 0429558076","146"
"0437199922","Flynn","Flynn, update your contact details before 10 July for your chance to WIN 1 of 5 2019 team signed guernseys! dtcl.nz/7x0P5M Opt out STOP 0429558076","146"
"0478517047","James","James, update your contact details before 10 July for your chance to WIN 1 of 5 2019 team signed guernseys! dtcl.nz/7objna Opt out STOP 0429558076","146"
"0421086979","Blake","Blake, update your contact details before 10 July for your chance to WIN 1 of 5 2019 team signed guernseys! dtcl.nz/D8jlxv Opt out STOP 0429558076","146"
"0448497328","Lachie","Lachie, update your contact details before 10 July for your chance to WIN 1 of 5 2019 team signed guernseys! dtcl.nz/zL8R3L Opt out STOP 0429558076","147"
"0423348449","Caelan","Caelan, update your contact details before 10 July for your chance to WIN 1 of 5 2019 team signed guernseys! dtcl.nz/WAYm38 Opt out STOP 0429558076","147"
"0407611532","Charlie","Charlie, update your contact details before 10 July for your chance to WIN 1 of 5 2019 team signed guernseys! dtcl.nz/DqbeAP Opt out STOP 0429558076","148"
"0413417570","Henri","Henri, update your contact details before 10 July for your chance to WIN 1 of 5 2019 team signed guernseys! dtcl.nz/ze1pAY Opt out STOP 0429558076","146"
"0421015224","Gianni","Gianni, update your contact details before 10 July for your chance to WIN 1 of 5 2019 team signed guernseys! dtcl.nz/WvjgAG Opt out STOP 0429558076","147"
"0422266600","Dan","Dan, update your contact details before 10 July for your chance to WIN 1 of 5 2019 team signed guernseys! dtcl.nz/DRXdB9 Opt out STOP 0429558076","144"
"0403166266","Angus","Angus, update your contact details before 10 July for your chance to WIN 1 of 5 2019 team signed guernseys! dtcl.nz/7Gd23x Opt out STOP 0429558076","146"
"0477719443","Melly","Melly, update your contact details before 10 July for your chance to WIN 1 of 5 2019 team signed guernseys! dtcl.nz/7rpvY6 Opt out STOP 0429558076","146"
"0427657069","Oden","Oden, update your contact details before 10 July for your chance to WIN 1 of 5 2019 team signed guernseys! dtcl.nz/DgqXAw Opt out STOP 0429558076","145"
"0438407232","Charlie ","Charlie, update your contact details before 10 July for your chance to WIN 1 of 5 2019 team signed guernseys! dtcl.nz/74Jyod Opt out STOP 0429558076","148"
"0438446780","Ethan","Ethan, update your contact details before 10 July for your chance to WIN 1 of 5 2019 team signed guernseys! dtcl.nz/WPZ4BY Opt out STOP 0429558076","146"
"0433961564","Devon","Devon, update your contact details before 10 July for your chance to WIN 1 of 5 2019 team signed guernseys! dtcl.nz/Ddb5Ao Opt out STOP 0429558076","146"
"0423863518","Lyn","Lyn, update your contact details before 10 July for your chance to WIN 1 of 5 2019 team signed guernseys! dtcl.nz/WNArOn Opt out STOP 0429558076","144"
"0411243601","Sam ","Sam, update your contact details before 10 July for your chance to WIN 1 of 5 2019 team signed guernseys! dtcl.nz/DZJ0nE Opt out STOP 0429558076","144"
"0413275448","Jack","Jack, update your contact details before 10 July for your chance to WIN 1 of 5 2019 team signed guernseys! dtcl.nz/D1nwLw Opt out STOP 0429558076","145"
"0421193132","Kirsty","Kirsty, update your contact details before 10 July for your chance to WIN 1 of 5 2019 team signed guernseys! dtcl.nz/ze1pA9 Opt out STOP 0429558076","147"
"0422299937","Jett","Jett, update your contact details before 10 July for your chance to WIN 1 of 5 2019 team signed guernseys! dtcl.nz/WvjgAr Opt out STOP 0429558076","145"
"0427851298","Ethan","Ethan, update your contact details before 10 July for your chance to WIN 1 of 5 2019 team signed guernseys! dtcl.nz/DRXdBb Opt out STOP 0429558076","146"
"0401969275","Taylor","Taylor, update your contact details before 10 July for your chance to WIN 1 of 5 2019 team signed guernseys! dtcl.nz/7Gd239 Opt out STOP 0429558076","147"
"0403629755","Brodie","Brodie, update your contact details before 10 July for your chance to WIN 1 of 5 2019 team signed guernseys! dtcl.nz/7rpvBq Opt out STOP 0429558076","147"
"0410558144","Henry","Henry, update your contact details before 10 July for your chance to WIN 1 of 5 2019 team signed guernseys! dtcl.nz/DgqXPK Opt out STOP 0429558076","146"
"0421787940","Maya","Maya, update your contact details before 10 July for your chance to WIN 1 of 5 2019 team signed guernseys! dtcl.nz/74JyPA Opt out STOP 0429558076","145"
"0400718940","Karen","Karen, update your contact details before 10 July for your chance to WIN 1 of 5 2019 team signed guernseys! dtcl.nz/WPZ4QZ Opt out STOP 0429558076","146"
"0438893601","Jayden","Jayden, update your contact details before 10 July for your chance to WIN 1 of 5 2019 team signed guernseys! dtcl.nz/Ddb5rq Opt out STOP 0429558076","147"
"0419861251","Jack","Jack, update your contact details before 10 July for your chance to WIN 1 of 5 2019 team signed guernseys! dtcl.nz/WNAr0d Opt out STOP 0429558076","145"
"0415953009","Maddison","Maddison, update your contact details before 10 July for your chance to WIN 1 of 5 2019 team signed guernseys! dtcl.nz/D1nwrV Opt out STOP 0429558076","149"
"0490047641","Grant","Grant, update your contact details before 10 July for your chance to WIN 1 of 5 2019 team signed guernseys! dtcl.nz/WkpQ1b Opt out STOP 0429558076","146"
"0423332192","Wyatt","Wyatt, update your contact details before 10 July for your chance to WIN 1 of 5 2019 team signed guernseys! dtcl.nz/79P3kJ Opt out STOP 0429558076","146"
"0437529779","Jack","Jack, update your contact details before 10 July for your chance to WIN 1 of 5 2019 team signed guernseys! dtcl.nz/zwL4Be Opt out STOP 0429558076","145"
"0408086650","Kobi","Kobi, update your contact details before 10 July for your chance to WIN 1 of 5 2019 team signed guernseys! dtcl.nz/DMEGMj Opt out STOP 0429558076","145"
"0413129930","Caitlin","Caitlin, update your contact details before 10 July for your chance to WIN 1 of 5 2019 team signed guernseys! dtcl.nz/D0X9GL Opt out STOP 0429558076","148"
"0403301147","Christina","Christina, update your contact details before 10 July for your chance to WIN 1 of 5 2019 team signed guernseys! dtcl.nz/7yedVj Opt out STOP 0429558076","150"
"0420393203","Mohammad","Mohammad, update your contact details before 10 July for your chance to WIN 1 of 5 2019 team signed guernseys! dtcl.nz/DBxbrk Opt out STOP 0429558076","149"
"0428855658","Linda","Linda, update your contact details before 10 July for your chance to WIN 1 of 5 2019 team signed guernseys! dtcl.nz/DEMJPR Opt out STOP 0429558076","146"
"0404832342","Chloe","Chloe, update your contact details before 10 July for your chance to WIN 1 of 5 2019 team signed guernseys! dtcl.nz/zYrMab Opt out STOP 0429558076","146"
"0401674730","Jacob","Jacob, update your contact details before 10 July for your chance to WIN 1 of 5 2019 team signed guernseys! dtcl.nz/zlKJkk Opt out STOP 0429558076","146"
"0417414103","Zara ","Zara, update your contact details before 10 July for your chance to WIN 1 of 5 2019 team signed guernseys! dtcl.nz/z3xq4Z Opt out STOP 0429558076","145"
"0426253700","Jason","Jason, update your contact details before 10 July for your chance to WIN 1 of 5 2019 team signed guernseys! dtcl.nz/z6rENK Opt out STOP 0429558076","146"
"0401592022","James","James, update your contact details before 10 July for your chance to WIN 1 of 5 2019 team signed guernseys! dtcl.nz/zaP6vl Opt out STOP 0429558076","146"
"0421341068","Emerson","Emerson, update your contact details before 10 July for your chance to WIN 1 of 5 2019 team signed guernseys! dtcl.nz/WVvkaB Opt out STOP 0429558076","148"
"0456870935","Alissa","Alissa, update your contact details before 10 July for your chance to WIN 1 of 5 2019 team signed guernseys! dtcl.nz/W5ZBdQ Opt out STOP 0429558076","147"
"0477886216","Bella","Bella, update your contact details before 10 July for your chance to WIN 1 of 5 2019 team signed guernseys! dtcl.nz/Wppx08 Opt out STOP 0429558076","146"
"0430808891","Belinda","Belinda, update your contact details before 10 July for your chance to WIN 1 of 5 2019 team signed guernseys! dtcl.nz/zXqwaL Opt out STOP 0429558076","148"
"0470636057","Fesa","Fesa, update your contact details before 10 July for your chance to WIN 1 of 5 2019 team signed guernseys! dtcl.nz/WmjO9N Opt out STOP 0429558076","145"
"0407396566","Sam","Sam, update your contact details before 10 July for your chance to WIN 1 of 5 2019 team signed guernseys! dtcl.nz/zb8qRE Opt out STOP 0429558076","144"
"0409671844","Lexi","Lexi, update your contact details before 10 July for your chance to WIN 1 of 5 2019 team signed guernseys! dtcl.nz/7nN2wx Opt out STOP 0429558076","145"
"0412438101","James","James, update your contact details before 10 July for your chance to WIN 1 of 5 2019 team signed guernseys! dtcl.nz/7Q1PXa Opt out STOP 0429558076","146"
"0421272362","Ash","Ash, update your contact details before 10 July for your chance to WIN 1 of 5 2019 team signed guernseys! dtcl.nz/DJQekg Opt out STOP 0429558076","144"
"0458189198","Iain","Iain, update your contact details before 10 July for your chance to WIN 1 of 5 2019 team signed guernseys! dtcl.nz/7OMgax Opt out STOP 0429558076","145"
"0401902374","Davis","Davis, update your contact details before 10 July for your chance to WIN 1 of 5 2019 team signed guernseys! dtcl.nz/72qMg6 Opt out STOP 0429558076","146"
"0405403287","Alexis","Alexis, update your contact details before 10 July for your chance to WIN 1 of 5 2019 team signed guernseys! dtcl.nz/WjpnZy Opt out STOP 0429558076","147"
"0406624443","Jo","Jo, update your contact details before 10 July for your chance to WIN 1 of 5 2019 team signed guernseys! dtcl.nz/7x0PQd Opt out STOP 0429558076","143"
"0408475715","Thalia","Thalia, update your contact details before 10 July for your chance to WIN 1 of 5 2019 team signed guernseys! dtcl.nz/7objM0 Opt out STOP 0429558076","147"
"0409676826","Samuel","Samuel, update your contact details before 10 July for your chance to WIN 1 of 5 2019 team signed guernseys! dtcl.nz/D8jl1B Opt out STOP 0429558076","147"
"0410936340","Julie","Julie, update your contact details before 10 July for your chance to WIN 1 of 5 2019 team signed guernseys! dtcl.nz/zL8Rwm Opt out STOP 0429558076","146"
"0408804394","Karen","Karen, update your contact details before 10 July for your chance to WIN 1 of 5 2019 team signed guernseys! dtcl.nz/WAYmGn Opt out STOP 0429558076","146"
"0407771996","James","James, update your contact details before 10 July for your chance to WIN 1 of 5 2019 team signed guernseys! dtcl.nz/DqbeOe Opt out STOP 0429558076","146"
"0468654771","Zackary","Zackary, update your contact details before 10 July for your chance to WIN 1 of 5 2019 team signed guernseys! dtcl.nz/ze1pg9 Opt out STOP 0429558076","148"
"0424779665","Joshua","Joshua, update your contact details before 10 July for your chance to WIN 1 of 5 2019 team signed guernseys! dtcl.nz/Wvjg5r Opt out STOP 0429558076","147"
"0473033487","Jack","Jack, update your contact details before 10 July for your chance to WIN 1 of 5 2019 team signed guernseys! dtcl.nz/DRXdab Opt out STOP 0429558076","145"
"0409802415","Hudson","Hudson, update your contact details before 10 July for your chance to WIN 1 of 5 2019 team signed guernseys! dtcl.nz/7Gd2N9 Opt out STOP 0429558076","147"
"0419800284","Meagan","Meagan, update your contact details before 10 July for your chance to WIN 1 of 5 2019 team signed guernseys! dtcl.nz/7rpvoq Opt out STOP 0429558076","147"
"0423311289","Kyle","Kyle, update your contact details before 10 July for your chance to WIN 1 of 5 2019 team signed guernseys! dtcl.nz/DgqXOK Opt out STOP 0429558076","145"
"0448223669","Donna","Donna, update your contact details before 10 July for your chance to WIN 1 of 5 2019 team signed guernseys! dtcl.nz/74Jy1A Opt out STOP 0429558076","146"
"0425169844","Georgina","Georgina, update your contact details before 10 July for your chance to WIN 1 of 5 2019 team signed guernseys! dtcl.nz/WPZ4GZ Opt out STOP 0429558076","149"
"0411208296","Lachlan","Lachlan, update your contact details before 10 July for your chance to WIN 1 of 5 2019 team signed guernseys! dtcl.nz/Ddb5Oq Opt out STOP 0429558076","148"
"0403892986","Jaydn","Jaydn, update your contact details before 10 July for your chance to WIN 1 of 5 2019 team signed guernseys! dtcl.nz/WNArvd Opt out STOP 0429558076","146"
"0411694498","Ryan","Ryan, update your contact details before 10 July for your chance to WIN 1 of 5 2019 team signed guernseys! dtcl.nz/DZJ096 Opt out STOP 0429558076","145"
"0467076601","Akiko","Akiko, update your contact details before 10 July for your chance to WIN 1 of 5 2019 team signed guernseys! dtcl.nz/D1nwdV Opt out STOP 0429558076","146"
"0428883845","Louis","Louis, update your contact details before 10 July for your chance to WIN 1 of 5 2019 team signed guernseys! dtcl.nz/WkpQOb Opt out STOP 0429558076","146"
"0451997915","Allan","Allan, update your contact details before 10 July for your chance to WIN 1 of 5 2019 team signed guernseys! dtcl.nz/79P30J Opt out STOP 0429558076","146"
"0424569591","Matthew","Matthew, update your contact details before 10 July for your chance to WIN 1 of 5 2019 team signed guernseys! dtcl.nz/DMEGej Opt out STOP 0429558076","148"
"0401650362","Abbey","Abbey, update your contact details before 10 July for your chance to WIN 1 of 5 2019 team signed guernseys! dtcl.nz/D0X9PL Opt out STOP 0429558076","146"
"0412304009","Kye","Kye, update your contact details before 10 July for your chance to WIN 1 of 5 2019 team signed guernseys! dtcl.nz/7yedoj Opt out STOP 0429558076","144"
"0497293722","Nick","Nick, update your contact details before 10 July for your chance to WIN 1 of 5 2019 team signed guernseys! dtcl.nz/DBxbnk Opt out STOP 0429558076","145"
"0430175356","Mia","Mia, update your contact details before 10 July for your chance to WIN 1 of 5 2019 team signed guernseys! dtcl.nz/DEMJnR Opt out STOP 0429558076","144"
"0417841855","Poppy","Poppy, update your contact details before 10 July for your chance to WIN 1 of 5 2019 team signed guernseys! dtcl.nz/zYrMkb Opt out STOP 0429558076","146"
"0437484139","Zahlia","Zahlia, update your contact details before 10 July for your chance to WIN 1 of 5 2019 team signed guernseys! dtcl.nz/zlKJLk Opt out STOP 0429558076","147"
"0417803978","Skye","Skye, update your contact details before 10 July for your chance to WIN 1 of 5 2019 team signed guernseys! dtcl.nz/z3xqZZ Opt out STOP 0429558076","145"
"0403254182","Lucy","Lucy, update your contact details before 10 July for your chance to WIN 1 of 5 2019 team signed guernseys! dtcl.nz/z6rE9K Opt out STOP 0429558076","145"
"0400294088","Jonah","Jonah, update your contact details before 10 July for your chance to WIN 1 of 5 2019 team signed guernseys! dtcl.nz/zaP6Ol Opt out STOP 0429558076","146"
"0429463072","Keira","Keira, update your contact details before 10 July for your chance to WIN 1 of 5 2019 team signed guernseys! dtcl.nz/WVvkNB Opt out STOP 0429558076","146"
"0424549660","Alby","Alby, update your contact details before 10 July for your chance to WIN 1 of 5 2019 team signed guernseys! dtcl.nz/WppxO8 Opt out STOP 0429558076","145"
"0438617868","Dylan","Dylan, update your contact details before 10 July for your chance to WIN 1 of 5 2019 team signed guernseys! dtcl.nz/WKOvnY Opt out STOP 0429558076","146"
"0498819882","Jake","Jake, update your contact details before 10 July for your chance to WIN 1 of 5 2019 team signed guernseys! dtcl.nz/zXqw1L Opt out STOP 0429558076","145"
"0481364935","Erik","Erik, update your contact details before 10 July for your chance to WIN 1 of 5 2019 team signed guernseys! dtcl.nz/zb8qOE Opt out STOP 0429558076","145"
"0402515618","Jay","Jay, update your contact details before 10 July for your chance to WIN 1 of 5 2019 team signed guernseys! dtcl.nz/7nN2Ox Opt out STOP 0429558076","144"
"0409611076","Mason","Mason, update your contact details before 10 July for your chance to WIN 1 of 5 2019 team signed guernseys! dtcl.nz/7Q1Pra Opt out STOP 0429558076","146"
"0417775113","Harry","Harry, update your contact details before 10 July for your chance to WIN 1 of 5 2019 team signed guernseys! dtcl.nz/DJQeng Opt out STOP 0429558076","146"
"0413724872","Joshua","Joshua, update your contact details before 10 July for your chance to WIN 1 of 5 2019 team signed guernseys! dtcl.nz/7OMgRx Opt out STOP 0429558076","147"
"0418816679","Cruz","Cruz, update your contact details before 10 July for your chance to WIN 1 of 5 2019 team signed guernseys! dtcl.nz/Wjpnxy Opt out STOP 0429558076","145"
"0403132403","Rose","Rose, update your contact details before 10 July for your chance to WIN 1 of 5 2019 team signed guernseys! dtcl.nz/7x0Pod Opt out STOP 0429558076","145"
"0488290099","Kirsteen","Kirsteen, update your contact details before 10 July for your chance to WIN 1 of 5 2019 team signed guernseys! dtcl.nz/7objO0 Opt out STOP 0429558076","149"
"0475056762","Jake ","Jake, update your contact details before 10 July for your chance to WIN 1 of 5 2019 team signed guernseys! dtcl.nz/D8jlMB Opt out STOP 0429558076","145"
"0434428089","Riley ","Riley, update your contact details before 10 July for your chance to WIN 1 of 5 2019 team signed guernseys! dtcl.nz/zL8RJm Opt out STOP 0429558076","146"
"0403308337","Lucy","Lucy, update your contact details before 10 July for your chance to WIN 1 of 5 2019 team signed guernseys! dtcl.nz/WAYmxn Opt out STOP 0429558076","145"
"0407197363","Lavinia","Lavinia, update your contact details before 10 July for your chance to WIN 1 of 5 2019 team signed guernseys! dtcl.nz/Dqbeoe Opt out STOP 0429558076","148"
"0400211370","Carter","Carter, update your contact details before 10 July for your chance to WIN 1 of 5 2019 team signed guernseys! dtcl.nz/Wvjgor Opt out STOP 0429558076","147"
"0438381968","Tom","Tom, update your contact details before 10 July for your chance to WIN 1 of 5 2019 team signed guernseys! dtcl.nz/DRXdgb Opt out STOP 0429558076","144"
"0413050923","Joshua","Joshua, update your contact details before 10 July for your chance to WIN 1 of 5 2019 team signed guernseys! dtcl.nz/7rpvAq Opt out STOP 0429558076","147"
"0432453246","Dheemantha","Dheemantha, update your contact details before 10 July for your chance to WIN 1 of 5 2019 team signed guernseys! dtcl.nz/DgqXxK Opt out STOP 0429558076","151"
"0412529740","Macy","Macy, update your contact details before 10 July for your chance to WIN 1 of 5 2019 team signed guernseys! dtcl.nz/74Jy6A Opt out STOP 0429558076","145"
"0437785714","Paige","Paige, update your contact details before 10 July for your chance to WIN 1 of 5 2019 team signed guernseys! dtcl.nz/WPZ4dZ Opt out STOP 0429558076","146"
"0403361048","Nicholas","Nicholas, update your contact details before 10 July for your chance to WIN 1 of 5 2019 team signed guernseys! dtcl.nz/Ddb5nq Opt out STOP 0429558076","149"
"0413382852","Ignatios","Ignatios, update your contact details before 10 July for your chance to WIN 1 of 5 2019 team signed guernseys! dtcl.nz/WNAr4d Opt out STOP 0429558076","149"
"0437790927","Harry","Harry, update your contact details before 10 July for your chance to WIN 1 of 5 2019 team signed guernseys! dtcl.nz/DZJ0B6 Opt out STOP 0429558076","146"
"0400453248","Barb","Barb, update your contact details before 10 July for your chance to WIN 1 of 5 2019 team signed guernseys! dtcl.nz/D1nw6V Opt out STOP 0429558076","145"
"0422229049","Kimberley","Kimberley, update your contact details before 10 July for your chance to WIN 1 of 5 2019 team signed guernseys! dtcl.nz/ze1pn8 Opt out STOP 0429558076","150"
"0412532144","Jack","Jack, update your contact details before 10 July for your chance to WIN 1 of 5 2019 team signed guernseys! dtcl.nz/Wvjgqe Opt out STOP 0429558076","145"
"0401549281","Eliza","Eliza, update your contact details before 10 July for your chance to WIN 1 of 5 2019 team signed guernseys! dtcl.nz/DRXdZy Opt out STOP 0429558076","146"
"0424187180","Gabby","Gabby, update your contact details before 10 July for your chance to WIN 1 of 5 2019 team signed guernseys! dtcl.nz/7Gd2Kb Opt out STOP 0429558076","146"
"0439802121","Tyson","Tyson, update your contact details before 10 July for your chance to WIN 1 of 5 2019 team signed guernseys! dtcl.nz/7rpvA3 Opt out STOP 0429558076","146"
"0458501387","Max ","Max, update your contact details before 10 July for your chance to WIN 1 of 5 2019 team signed guernseys! dtcl.nz/DgqXxN Opt out STOP 0429558076","144"
"0450945979","George","George, update your contact details before 10 July for your chance to WIN 1 of 5 2019 team signed guernseys! dtcl.nz/74Jy6b Opt out STOP 0429558076","147"
"0413318732","Jordi","Jordi, update your contact details before 10 July for your chance to WIN 1 of 5 2019 team signed guernseys! dtcl.nz/Ddb5nA Opt out STOP 0429558076","146"
"0431175745","Aishath","Aishath, update your contact details before 10 July for your chance to WIN 1 of 5 2019 team signed guernseys! dtcl.nz/WNAr40 Opt out STOP 0429558076","148"
"0414937404","Lincoln","Lincoln, update your contact details before 10 July for your chance to WIN 1 of 5 2019 team signed guernseys! dtcl.nz/DZJ0B9 Opt out STOP 0429558076","148"
"0412316939","Henry","Henry, update your contact details before 10 July for your chance to WIN 1 of 5 2019 team signed guernseys! dtcl.nz/D1nw66 Opt out STOP 0429558076","146"
"0450664500","Myiesha","Myiesha, update your contact details before 10 July for your chance to WIN 1 of 5 2019 team signed guernseys! dtcl.nz/WkpQnL Opt out STOP 0429558076","148"
"0457241799","Praina","Praina, update your contact details before 10 July for your chance to WIN 1 of 5 2019 team signed guernseys! dtcl.nz/79P3qZ Opt out STOP 0429558076","147"
"0419801708","Ava","Ava, update your contact details before 10 July for your chance to WIN 1 of 5 2019 team signed guernseys! dtcl.nz/zwL4Vw Opt out STOP 0429558076","144"
"0412122187","Angus","Angus, update your contact details before 10 July for your chance to WIN 1 of 5 2019 team signed guernseys! dtcl.nz/DMEGg8 Opt out STOP 0429558076","146"
"0450603272","Tyler","Tyler, update your contact details before 10 July for your chance to WIN 1 of 5 2019 team signed guernseys! dtcl.nz/7yedO6 Opt out STOP 0429558076","146"
"0403002771","Lilly","Lilly, update your contact details before 10 July for your chance to WIN 1 of 5 2019 team signed guernseys! dtcl.nz/DBxb28 Opt out STOP 0429558076","146"
"0407653594","Lydia","Lydia, update your contact details before 10 July for your chance to WIN 1 of 5 2019 team signed guernseys! dtcl.nz/DEMJKy Opt out STOP 0429558076","146"
"0407091237","Violet","Violet, update your contact details before 10 July for your chance to WIN 1 of 5 2019 team signed guernseys! dtcl.nz/zYrMyd Opt out STOP 0429558076","147"
"0403978697","Luke","Luke, update your contact details before 10 July for your chance to WIN 1 of 5 2019 team signed guernseys! dtcl.nz/zlKJn3 Opt out STOP 0429558076","145"
"0430736261","Phoenix","Phoenix, update your contact details before 10 July for your chance to WIN 1 of 5 2019 team signed guernseys! dtcl.nz/z3xqXk Opt out STOP 0429558076","148"
"0488119544","Brooke ","Brooke, update your contact details before 10 July for your chance to WIN 1 of 5 2019 team signed guernseys! dtcl.nz/z6rEKw Opt out STOP 0429558076","147"
"0405845395","Jacob","Jacob, update your contact details before 10 July for your chance to WIN 1 of 5 2019 team signed guernseys! dtcl.nz/zaP6n4 Opt out STOP 0429558076","146"
"0423245971","Sam","Sam, update your contact details before 10 July for your chance to WIN 1 of 5 2019 team signed guernseys! dtcl.nz/WVvkwm Opt out STOP 0429558076","144"
"04022483334","Angus","Angus, update your contact details before 10 July for your chance to WIN 1 of 5 2019 team signed guernseys! dtcl.nz/W5ZBON Opt out STOP 0429558076","146"
"0488364482","Ada","Ada, update your contact details before 10 July for your chance to WIN 1 of 5 2019 team signed guernseys! dtcl.nz/WKOvGo Opt out STOP 0429558076","144"
"0429422766","Ruby","Ruby, update your contact details before 10 July for your chance to WIN 1 of 5 2019 team signed guernseys! dtcl.nz/zXqw0g Opt out STOP 0429558076","145"
"0424396679","Amelia","Amelia, update your contact details before 10 July for your chance to WIN 1 of 5 2019 team signed guernseys! dtcl.nz/WmjOne Opt out STOP 0429558076","147"
"0400258287","Bryce","Bryce, update your contact details before 10 July for your chance to WIN 1 of 5 2019 team signed guernseys! dtcl.nz/7nN2Q3 Opt out STOP 0429558076","146"
"0423967208","Harvey","Harvey, update your contact details before 10 July for your chance to WIN 1 of 5 2019 team signed guernseys! dtcl.nz/7Q1PNd Opt out STOP 0429558076","147"
"0423726010","Eliza","Eliza, update your contact details before 10 July for your chance to WIN 1 of 5 2019 team signed guernseys! dtcl.nz/DJQeR6 Opt out STOP 0429558076","146"
"0429697407","Aiden","Aiden, update your contact details before 10 July for your chance to WIN 1 of 5 2019 team signed guernseys! dtcl.nz/7OMgPX Opt out STOP 0429558076","146"
"0428598588","Vegas","Vegas, update your contact details before 10 July for your chance to WIN 1 of 5 2019 team signed guernseys! dtcl.nz/72qMvo Opt out STOP 0429558076","146"
"0430175356","Lachlan","Lachlan, update your contact details before 10 July for your chance to WIN 1 of 5 2019 team signed guernseys! dtcl.nz/WjpnlE Opt out STOP 0429558076","148"
"0450603272","Jye","Jye, update your contact details before 10 July for your chance to WIN 1 of 5 2019 team signed guernseys! dtcl.nz/7x0PKL Opt out STOP 0429558076","144"
"0438090334","Rohan","Rohan, update your contact details before 10 July for your chance to WIN 1 of 5 2019 team signed guernseys! dtcl.nz/7objob Opt out STOP 0429558076","146"
"0401674730","Riley ","Riley, update your contact details before 10 July for your chance to WIN 1 of 5 2019 team signed guernseys! dtcl.nz/D8jlPQ Opt out STOP 0429558076","146"
"0434428089","Hayden","Hayden, update your contact details before 10 July for your chance to WIN 1 of 5 2019 team signed guernseys! dtcl.nz/zL8RjO Opt out STOP 0429558076","147"
"0423593665","Izabella","Izabella, update your contact details before 10 July for your chance to WIN 1 of 5 2019 team signed guernseys! dtcl.nz/WAYm0e Opt out STOP 0429558076","149"
"0427603597","Lacey","Lacey, update your contact details before 10 July for your chance to WIN 1 of 5 2019 team signed guernseys! dtcl.nz/DqbeKR Opt out STOP 0429558076","146"
"0403042095","Sebastian","Sebastian, update your contact details before 10 July for your chance to WIN 1 of 5 2019 team signed guernseys! dtcl.nz/ze1pJ8 Opt out STOP 0429558076","150"
"0433365251","Zaran","Zaran, update your contact details before 10 July for your chance to WIN 1 of 5 2019 team signed guernseys! dtcl.nz/WvjgKe Opt out STOP 0429558076","146"
"0413976607","Jack","Jack, update your contact details before 10 July for your chance to WIN 1 of 5 2019 team signed guernseys! dtcl.nz/DRXdmy Opt out STOP 0429558076","145"
"0456431523","Anna","Anna, update your contact details before 10 July for your chance to WIN 1 of 5 2019 team signed guernseys! dtcl.nz/7Gd2mb Opt out STOP 0429558076","145"
"0410219566","Victoria","Victoria, update your contact details before 10 July for your chance to WIN 1 of 5 2019 team signed guernseys! dtcl.nz/7rpvX3 Opt out STOP 0429558076","149"
"0413487417","Charlie","Charlie, update your contact details before 10 July for your chance to WIN 1 of 5 2019 team signed guernseys! dtcl.nz/DgqXlN Opt out STOP 0429558076","148"
"0409099821","Aston","Aston, update your contact details before 10 July for your chance to WIN 1 of 5 2019 team signed guernseys! dtcl.nz/WPZ4m9 Opt out STOP 0429558076","146"
"0448465010","James","James, update your contact details before 10 July for your chance to WIN 1 of 5 2019 team signed guernseys! dtcl.nz/Ddb5aA Opt out STOP 0429558076","146"
"04120090942","Susan","Susan, update your contact details before 10 July for your chance to WIN 1 of 5 2019 team signed guernseys! dtcl.nz/WNAr80 Opt out STOP 0429558076","146"
"0414586766","Charli","Charli, update your contact details before 10 July for your chance to WIN 1 of 5 2019 team signed guernseys! dtcl.nz/DZJ0O9 Opt out STOP 0429558076","147"
"0412304009","Dylan","Dylan, update your contact details before 10 July for your chance to WIN 1 of 5 2019 team signed guernseys! dtcl.nz/D1nwe6 Opt out STOP 0429558076","146"
"0407732880","Jake","Jake, update your contact details before 10 July for your chance to WIN 1 of 5 2019 team signed guernseys! dtcl.nz/WkpQLL Opt out STOP 0429558076","145"
"0402080526","Liam","Liam, update your contact details before 10 July for your chance to WIN 1 of 5 2019 team signed guernseys! dtcl.nz/79P3dZ Opt out STOP 0429558076","145"
"0409008625","Daisy","Daisy, update your contact details before 10 July for your chance to WIN 1 of 5 2019 team signed guernseys! dtcl.nz/zwL4nw Opt out STOP 0429558076","146"
"0423915012","Shaylah","Shaylah, update your contact details before 10 July for your chance to WIN 1 of 5 2019 team signed guernseys! dtcl.nz/D0X9Ey Opt out STOP 0429558076","148"
"0431637663","Hannah","Hannah, update your contact details before 10 July for your chance to WIN 1 of 5 2019 team signed guernseys! dtcl.nz/7yedA6 Opt out STOP 0429558076","147"
"0412356557","Samuel","Samuel, update your contact details before 10 July for your chance to WIN 1 of 5 2019 team signed guernseys! dtcl.nz/DBxby8 Opt out STOP 0429558076","147"
"0410906157","Arthur","Arthur, update your contact details before 10 July for your chance to WIN 1 of 5 2019 team signed guernseys! dtcl.nz/DEMJmy Opt out STOP 0429558076","147"
"0408814951","Xavier","Xavier, update your contact details before 10 July for your chance to WIN 1 of 5 2019 team signed guernseys! dtcl.nz/zYrMld Opt out STOP 0429558076","147"
"0481165082","Megan","Megan, update your contact details before 10 July for your chance to WIN 1 of 5 2019 team signed guernseys! dtcl.nz/zlKJl3 Opt out STOP 0429558076","146"
"0439113160","Wayne","Wayne, update your contact details before 10 July for your chance to WIN 1 of 5 2019 team signed guernseys! dtcl.nz/z3xqRk Opt out STOP 0429558076","146"
"0427297055","Michael","Michael, update your contact details before 10 July for your chance to WIN 1 of 5 2019 team signed guernseys! dtcl.nz/z6rEgw Opt out STOP 0429558076","148"
"0414370257","Nicholas","Nicholas, update your contact details before 10 July for your chance to WIN 1 of 5 2019 team signed guernseys! dtcl.nz/zaP6l4 Opt out STOP 0429558076","149"
"0407771996","Tyson","Tyson, update your contact details before 10 July for your chance to WIN 1 of 5 2019 team signed guernseys! dtcl.nz/WVvkQm Opt out STOP 0429558076","146"
"0415953009","Parker","Parker, update your contact details before 10 July for your chance to WIN 1 of 5 2019 team signed guernseys! dtcl.nz/W5ZBrN Opt out STOP 0429558076","147"
"0409810193","Jack","Jack, update your contact details before 10 July for your chance to WIN 1 of 5 2019 team signed guernseys! dtcl.nz/WppxKy Opt out STOP 0429558076","145"
"0406210224","Sam","Sam, update your contact details before 10 July for your chance to WIN 1 of 5 2019 team signed guernseys! dtcl.nz/WKOvmo Opt out STOP 0429558076","144"
"0413868452","Alan","Alan, update your contact details before 10 July for your chance to WIN 1 of 5 2019 team signed guernseys! dtcl.nz/zXqwmg Opt out STOP 0429558076","145"
"0417858217","Karen","Karen, update your contact details before 10 July for your chance to WIN 1 of 5 2019 team signed guernseys! dtcl.nz/WmjOKe Opt out STOP 0429558076","146"
"0882842001","Raylene","Raylene, update your contact details before 10 July for your chance to WIN 1 of 5 2019 team signed guernseys! dtcl.nz/zb8qlq Opt out STOP 0429558076","148"
"0402787271","Tamara","Tamara, update your contact details before 10 July for your chance to WIN 1 of 5 2019 team signed guernseys! dtcl.nz/7nN2K3 Opt out STOP 0429558076","147"
